setup_vision = yes
government = tribal
add_government_reform = greentide_horde
government_rank = 1
primary_culture = green_orc
religion = great_dookan
technology_group = tech_orcish
capital = 871

1390.12.3 = {
	monarch = {
		name = "Grama"
		dynasty = "Clouded Eye"
		birth_date = 1368.4.19
		adm = 6
		dip = 6
		mil = 2
		female = yes
	}
}