#486 - Guantanamo		

owner = U09
controller = U09
add_core = U09
culture = sandfang_gnoll
religion = xhazobkult

hre = no

base_tax = 3
base_production = 2
base_manpower = 4

trade_goods = grain

capital = ""

is_city = yes




