country_decisions = {
	show_defensive_improvements = {
		major = yes
		
		potential = {
			tag = A47
			has_country_flag = eborthil_reinforce_the_home_isles
			NOT = { has_country_flag = show_defensive_improvements }
			NOT = {
			    AND = {
				    has_country_flag = tefori_protection
	   			    has_country_flag = space_cleared_out
		    		has_country_flag = delian_battery
			    	has_country_flag = tower_of_tef
				    has_country_flag = tunnel_systems
					has_country_flag = toref_citadel
			    }
			}
		}
		
		allow = {
			owns_core_province = 35			
			owns_core_province = 36
			owns_core_province = 369
			owns_core_province = 379
			owns_core_province = 380
		}
		
		effect = {
		    set_country_flag = show_defensive_improvements
		}
	}
	
	hide_defensive_improvements = {
	    major = yes
		
		potential = {
			tag = A47
			has_country_flag = show_defensive_improvements
			NOT = {
			    AND = {
				    has_country_flag = tefori_protection
	   			    has_country_flag = space_cleared_out
		    		has_country_flag = delian_battery
			    	has_country_flag = tower_of_tef
				    has_country_flag = tunnel_systems
					has_country_flag = toref_citadel
			    }
			}
		}
		
		allow = {
			always = yes
		}
		
		effect = {
			clr_country_flag = show_defensive_improvements
		}
	}
	
	the_first_line = {
	    major = no
		
		potential = {
			tag = A47
			has_country_flag = show_defensive_improvements
			NOT = { has_country_flag = tefori_protection }
		}
		
		allow = {
		    dip_power = 50
		}
		
		effect = {
			add_dip_power = -50
			set_country_flag = tefori_protection
		}
	}
	
	clear_out_space = {
	    major = no
		
		potential = {
			tag = A47
			has_country_flag = show_defensive_improvements
			NOT = { has_country_flag = space_cleared_out }
		}
		
		allow = {
		    treasury = 200
			owns_core_province = 35			
			owns_core_province = 36
			owns_core_province = 369
			owns_core_province = 379
			owns_core_province = 380
		}
		
		effect = {
		    add_treasury = -200
			isle_of_tef_area = {
			    add_province_modifier = {
					name = eborthil_space_cleared_out
					duration = -1
				}
			}
			set_country_flag = space_cleared_out
		}
	}
	
	the_delian_battery = {
	    major = no
		
		potential = {
			tag = A47
			has_country_flag = show_defensive_improvements
			has_country_flag = space_cleared_out
			NOT = { has_country_flag = delian_battery }
		}
		
		allow = {
		    mil_tech = 5
			treasury = 100
			owns_core_province = 35
			owns_core_province = 379
			owns_core_province = 380
		}
		
		effect = {
		    add_treasury = -100
			35 = {
			    add_building = coastal_defence
			}
			379 = {
			    add_building = coastal_defence
			}
			380 = {
			    add_building = coastal_defence
			}
			set_country_flag = delian_battery
		}
	}
	
	tower_of_tef = {
	    major = no
		
		potential = {
			tag = A47
			has_country_flag = show_defensive_improvements
			has_country_flag = space_cleared_out
			NOT = { has_country_flag = tower_of_tef }
		}
		
		allow = {
			treasury = 200
			owns_core_province = 36
		}
		
		effect = {
		    add_treasury = -200
			36 = {
			    add_province_modifier = {
					name = eborthil_tower_of_tef
					duration = -1
				}
			}
			set_country_flag = tower_of_tef
		}
	}
	
	tunnel_systems = {
	    major = no
		
		potential = {
			tag = A47
			has_country_flag = show_defensive_improvements
			has_country_flag = space_cleared_out
			NOT = { has_country_flag = tunnel_systems }
		}
		
		allow = {
			treasury = 200
			owns_core_province = 35			
			owns_core_province = 369
			owns_core_province = 379
			owns_core_province = 380
		}
		
		effect = {
		    add_treasury = -200
			35 = {
			    add_province_modifier = {
					name = eborthil_defensive_tunnels
					duration = -1
				}
			}
			369 = {
			    add_province_modifier = {
					name = eborthil_defensive_tunnels
					duration = -1
				}
			}
			379 = {
			    add_province_modifier = {
					name = eborthil_defensive_tunnels
					duration = -1
				}
			}
			380 = {
			    add_province_modifier = {
					name = eborthil_defensive_tunnels
					duration = -1
				}
			}
			set_country_flag = tunnel_systems
		}
	}
	
	toref_citadel = {
	    major = no
		
		potential = {
			tag = A47
			has_country_flag = show_defensive_improvements
			has_country_flag = space_cleared_out
			NOT = { has_country_flag = toref_citadel }
		}
		
		allow = {
			treasury = 200
			owns_core_province = 35
		}
		
		effect = {
		    add_treasury = -200
			35 = {
			    add_province_modifier = {
					name = eborthil_modern_citadel
					duration = -1
				}
			}
			set_country_flag = toref_citadel
		}
	}
}