country_decisions = {

	kheionai_nation = {
		major = yes
		potential = {
			OR = {
				culture_group = kheionai_ruinborn_elf
			}
			NOT = { has_country_flag = formed_kheios_flag }
			NOT = { exists = H22 } #Kheiós
			OR = {
				is_former_colonial_nation = no
				AND = {
					is_former_colonial_nation = yes
					ai = no
				}
			}
			normal_or_historical_nations = yes
			was_never_end_game_tag_trigger = yes
		}

		provinces_to_highlight = {
			OR = {
				province_id = 2728
				province_id = 2731
				province_id = 2732
				province_id = 2736
				province_id = 2738
				province_id = 2773
				province_id = 2745
			}
			OR = {
				NOT = { owned_by = ROOT }
				NOT = { is_core = ROOT }
			}
		}
		allow = {
			adm_tech = 7
			is_free_or_tributary_trigger = yes
			is_nomad = no
			is_at_war = no
			
                        num_of_owned_provinces_with = {
				value = 30
				region = alecand_region
			}
                        num_of_owned_provinces_with = {
				value = 30
				region = devand_region
			}                        

			#Required provinces
			2728 = {
                owned_by = ROOT
            }
			2731 = {
                owned_by = ROOT
            }
            2732 = {
                owned_by = ROOT
           }
            2736 = {
                 owned_by = ROOT
            }
            2738 = {
                owned_by = ROOT
            }
            2773 = {
                owned_by = ROOT
            }
            2745 = {
            owned_by = ROOT
            }
		}
		effect = {
			change_tag = H22
			hidden_effect = { restore_country_name = yes }
			remove_non_electors_emperors_from_empire_effect = yes
			if = {
				limit = {
					has_reform = monastic_order_reform
				}
				add_government_reform = leading_clergy_reform
			}
			if = {
				limit = {
					NOT = { government_rank = 3 }
				}
				set_government_rank = 3
			}
			#custom_tooltip = tooltip_kheionai_culture_provinces
			#Claims
			kheionai_superregion = {
				limit = {
					NOT = { owned_by = ROOT }
				}
				add_permanent_claim = H22
			}
			every_owned_province = {
			    limit = { 
				    owned_by = ROOT
					region = alecand_region
					NOT = { has_province_modifier = kheionai_warded_city }
				}
                add_province_modifier = {
				    name = "kheionai_warded_city"
					duration = -1
				}
			}	
			if = {
				limit = { has_custom_ideas = no }
				country_event = { id = ideagroups.1 } #Swap Ideas
			}
			
			add_prestige = 50
			add_country_modifier = {
				name = "centralization_modifier"
				duration = 7300
			}
			set_country_flag = formed_kheios_flag
		}
		ai_will_do = {
			factor = 1
		}
		ai_importance = 400
	}
}