dependency = {
    subject_type = autonomous_vassal
    first = G06       # Cheshoshoanta
    second = G08     # Shofa
    start_date = 1432.1.1 # Date they're sent out
    end_date = 1543.1.1   # Sacked Citadel (ish)
}

dependency = {
    subject_type = autonomous_vassal
    first = G06       # Cheshoshoanta
    second = G07     # Dokants
    start_date = 1432.1.1 # Date they're sent out
    end_date = 1610.1.1   # Fully-annexed (ish)
}